<?xml version="1.0" encoding="utf-8"?>
<!-- Generator: Adobe Illustrator 21.1.0, SVG Export Plug-In . SVG Version: 6.00 Build 0)  -->
<svg version="1.1" id="Слой_1" xmlns="http://www.w3.org/2000/svg" xmlns:xlink="http://www.w3.org/1999/xlink" x="0px" y="0px"
	 viewBox="0 0 100 100" style="enable-background:new 0 0 100 100;" xml:space="preserve">
<style type="text/css">
	.st0{fill:none;stroke:#FFFFFF;stroke-width:3;stroke-linecap:round;stroke-linejoin:round;stroke-miterlimit:10;}
</style>
<line class="st0" x1="58.4000015" y1="41" x2="46" y2="41"/>
<line class="st0" x1="53.4000015" y1="47" x2="46" y2="47"/>
<path class="st0" d="M65,65H55h-5H35c-2.7599983,0-5-2.2400017-5-5s2.2400017-5,5-5h30c-2.7599983,0-5,2.2400017-5,5
	S62.2400017,65,65,65c2.7600021,0,5-2.2400017,5-5V35H40v20h10c-2.7599983,0-5,2.2400017-5,5s2.2400017,5,5,5"/>
</svg>
