<?xml version="1.0" encoding="utf-8"?>
<!-- Generator: Adobe Illustrator 21.1.0, SVG Export Plug-In . SVG Version: 6.00 Build 0)  -->
<svg version="1.1" id="Слой_1" xmlns="http://www.w3.org/2000/svg" xmlns:xlink="http://www.w3.org/1999/xlink" x="0px" y="0px"
	 viewBox="0 0 100 100" style="enable-background:new 0 0 100 100;" xml:space="preserve">
<style type="text/css">
	.st0{fill:none;stroke:#FFFFFF;stroke-width:3;stroke-linecap:round;stroke-linejoin:round;stroke-miterlimit:10;}
</style>
<path class="st0" d="M40.6892967,56.7043648c0,1.7285805-2.117569,3.5385857-4.7297287,4.0427551
	c-2.6121559,0.5041695-4.7297287-0.4884148-4.7297287-2.2169952s2.1175728-3.5385857,4.7297287-4.0427551
	C38.5717278,53.9832001,40.6892967,54.9757805,40.6892967,56.7043648z"/>
<polyline class="st0" points="40.6899986,56.7000008 40.6899986,35.8400002 59.6100006,32.5 59.6100006,42.5800018 "/>
<polygon class="st0" points="56.157547,54.8873863 56.157547,48.5810814 62.4638557,48.5810814 62.4638557,54.8873863 
	68.7701645,54.8873863 68.7701645,61.1936951 62.4638557,61.1936951 62.4638557,67.5 56.157547,67.5 56.157547,61.1936951 
	56.157547,67.5 62.4638557,67.5 62.4638557,61.1936951 68.7701645,61.1936951 68.7701645,54.8873863 62.4638557,54.8873863 
	62.4638557,48.5810814 56.157547,48.5810814 56.157547,54.8873863 49.8512421,54.8873863 49.8512421,61.1936951 
	56.157547,61.1936951 49.8512421,61.1936951 49.8512421,54.8873863 "/>
</svg>
