<?xml version="1.0" encoding="utf-8"?>
<!-- Generator: Adobe Illustrator 21.1.0, SVG Export Plug-In . SVG Version: 6.00 Build 0)  -->
<svg version="1.1" id="Слой_1" xmlns="http://www.w3.org/2000/svg" xmlns:xlink="http://www.w3.org/1999/xlink" x="0px" y="0px"
	 viewBox="0 0 100 100" style="enable-background:new 0 0 100 100;" xml:space="preserve">
<style type="text/css">
	.st0{fill:none;stroke:#FFFFFF;stroke-width:2.5;stroke-linecap:round;stroke-linejoin:round;stroke-miterlimit:10;}
</style>
<line class="st0" x1="42.9" y1="42.5" x2="51.3" y2="42.5"/>
<line class="st0" x1="42.9" y1="47.5" x2="49.2" y2="47.5"/>
<path class="st0" d="M58.8,54.2V37.5H37.9v20.8c0,2.3,1.8,4.2,4.2,4.2h12.5h3.3c2.3,0,4.2-1.8,4.2-4.2l0,0v-4.2l0,0H58.8h-4.2h-8.3
	v4.2c0,2.3-1.8,4.2-4.2,4.2s-4.2-1.8-4.2-4.2"/>
</svg>
