<?xml version="1.0" encoding="utf-8"?>
<!-- Generator: Adobe Illustrator 21.1.0, SVG Export Plug-In . SVG Version: 6.00 Build 0)  -->
<svg version="1.1" id="Слой_1" xmlns="http://www.w3.org/2000/svg" xmlns:xlink="http://www.w3.org/1999/xlink" x="0px" y="0px"
	 viewBox="0 0 100 100" style="enable-background:new 0 0 100 100;" xml:space="preserve">
<style type="text/css">
	.st0{fill:none;stroke:#FFFFFF;stroke-width:3;stroke-linecap:round;stroke-linejoin:round;stroke-miterlimit:10;}
</style>
<circle class="st0" cx="45.6605186" cy="37.7930984" r="5.2930984"/>
<path class="st0" d="M41.9700012,58.7200012H36.25c-0.5900002,0-1.0600014-0.4700012-1.0600014-1.0600014
	c0-0.0299988,0-0.0699997,0-0.1100006c0.5800018-5.2900009,5.0699997-9.4099998,10.5200005-9.4099998
	c0.6399994,0,1.2700005,0.0600014,1.8800011,0.170002"/>
<polygon class="st0" points="56.3927917,55.1129036 60.3613358,51.1443596 64.3298798,55.1129036 60.3613358,59.0814476 
	64.3298798,63.0499916 60.3613396,67.0185318 56.3927956,63.0499916 52.4242516,67.0185318 48.4557076,63.0499916 
	52.4242516,59.0814476 48.4557076,63.0499916 52.4242516,67.0185318 56.3927956,63.0499916 60.3613396,67.0185318 
	64.3298798,63.0499916 60.3613358,59.0814476 64.3298798,55.1129036 60.3613358,51.1443596 56.3927917,55.1129036 
	52.4242477,51.1443596 48.4557076,55.1129036 52.4242516,59.0814476 48.4557076,55.1129036 52.4242477,51.1443596 "/>
</svg>
