<?xml version="1.0" encoding="utf-8"?>
<!-- Generator: Adobe Illustrator 21.1.0, SVG Export Plug-In . SVG Version: 6.00 Build 0)  -->
<svg version="1.1" id="Слой_1" xmlns="http://www.w3.org/2000/svg" xmlns:xlink="http://www.w3.org/1999/xlink" x="0px" y="0px"
	 viewBox="0 0 100 100" style="enable-background:new 0 0 100 100;" xml:space="preserve">
<style type="text/css">
	.st0{fill:none;stroke:#FFFFFF;stroke-width:2.5;stroke-linecap:round;stroke-linejoin:round;stroke-miterlimit:10;}
</style>
<path class="st0" d="M41.9,62.5h3.7h12.5c1.9,0,3.5-1.6,3.5-3.5V37.5H45.4v6.3v1v10.4V59C45.4,60.9,43.8,62.5,41.9,62.5
	c-1.9,0-3.5-1.6-3.5-3.5V45.6h7"/>
<line class="st0" x1="54.6" y1="42.5" x2="50.4" y2="42.5"/>
<line class="st0" x1="56.3" y1="47.1" x2="50.4" y2="47.1"/>
</svg>
